HW2
…
Here you can see average values of MCP and SMP

plot_three <- data %>% group_by(day = lubridate::day(d)) %>% summarise(daily_avg_MCP= mean(mcp), daily_avg_SMP= mean(smp),daily_avg_pip=mean(pip),daily_avg_nip=mean(nip))
print(plot_three)

## # A tibble: 31 x 5
##      day daily_avg_MCP daily_avg_SMP daily_avg_pip daily_avg_nip
##    <int>         <dbl>         <dbl>         <dbl>         <dbl>
##  1     1          320.          268.          250.          341.
##  2     2          298.          357.          289.          368.
##  3     3          317.          373.          307.          384.
##  4     4          306.          321.          292.          336.
##  5     5          258.          198.          192.          265.
##  6     6          290.          307.          280.          317.
##  7     7          307.          298.          277.          330.
##  8     8          304.          191.          185.          313.
##  9     9          288.          189.          183.          297.
## 10    10          282.          292.          270.          305.
## # ... with 21 more rows
…
print(plot_four)

## # A tibble: 744 x 8
## # Groups:   hour_of_day, day [744]
##    d                     mcp   smp   pip   nip sd         hour_of_day day       
##    <dttm>              <dbl> <dbl> <dbl> <dbl> <fct>            <int> <date>    
##  1 2020-07-01 00:00:00  324.  211   205.  334. Energy Su~           0 2020-07-01
##  2 2020-07-01 01:00:00  327.  201   195.  337. Energy Su~           1 2020-07-01
##  3 2020-07-01 02:00:00  324.  211   205.  334. Energy Su~           2 2020-07-01
##  4 2020-07-01 03:00:00  322.  211   205.  332. Energy Su~           3 2020-07-01
##  5 2020-07-01 04:00:00  320   201   195.  330. Energy Su~           4 2020-07-01
##  6 2020-07-01 05:00:00  286.  181   176.  295. Energy Su~           5 2020-07-01
##  7 2020-07-01 06:00:00  210.  114.  110.  216. Energy Su~           6 2020-07-01
##  8 2020-07-01 07:00:00  318.  201   195.  328. Energy Su~           7 2020-07-01
##  9 2020-07-01 08:00:00  325.  181   176.  335. Energy Su~           8 2020-07-01
## 10 2020-07-01 09:00:00  328.  181   176.  338. Energy Su~           9 2020-07-01
## # ... with 734 more rows
…
print(plot_five)

## # A tibble: 744 x 8
## # Groups:   hour_of_day, dayofweek [168]
##    d                     mcp   smp   pip   nip sd          hour_of_day dayofweek
##    <dttm>              <dbl> <dbl> <dbl> <dbl> <fct>             <int>     <dbl>
##  1 2020-07-01 00:00:00  324.  211   205.  334. Energy Sur~           0         4
##  2 2020-07-01 01:00:00  327.  201   195.  337. Energy Sur~           1         4
##  3 2020-07-01 02:00:00  324.  211   205.  334. Energy Sur~           2         4
##  4 2020-07-01 03:00:00  322.  211   205.  332. Energy Sur~           3         4
##  5 2020-07-01 04:00:00  320   201   195.  330. Energy Sur~           4         4
##  6 2020-07-01 05:00:00  286.  181   176.  295. Energy Sur~           5         4
##  7 2020-07-01 06:00:00  210.  114.  110.  216. Energy Sur~           6         4
##  8 2020-07-01 07:00:00  318.  201   195.  328. Energy Sur~           7         4
##  9 2020-07-01 08:00:00  325.  181   176.  335. Energy Sur~           8         4
## 10 2020-07-01 09:00:00  328.  181   176.  338. Energy Sur~           9         4
## # ... with 734 more rows
